,,,,,,
,,,,,,
,,predictions,,,,
,,Negative,Positive,,,
actuals,Negative,200,51,,,
,Positive,10,739,,,
,,,,,,
,,,,accuracy,(TP + FP) / (*),0.939
TP,739,a,,Precision,TP / (TP + FP),0.935443037974684
FP,51,,,recall,TP / (TP + FN),0.986648865153538
TN,200,,,,,
FN,10,,,,,
