digraph Tree {
node [shape=box, style="filled, rounded", color="black", fontname="helvetica"] ;
edge [fontname="helvetica"] ;
0 [label="weight <= 65.5\ngini = 0.819\nsamples = 79786\nvalue = [11710, 19870, 14682, 12809, 6592, 14123]", fillcolor="#f7fdef"] ;
1 [label="weight <= 56.5\ngini = 0.778\nsamples = 59176\nvalue = [9703, 19243, 14595, 7235, 6583, 1817]", fillcolor="#f5fcea"] ;
0 -> 1 [labeldistance=2.5, labelangle=45, headlabel="True"] ;
2 [label="weight <= 52.5\ngini = 0.689\nsamples = 27021\nvalue = [1231, 7430, 11416, 525, 6325, 94]", fillcolor="#d7fae5"] ;
1 -> 2 ;
3 [label="weight <= 49.5\ngini = 0.623\nsamples = 11297\nvalue = [153, 1463, 4837, 61, 4753, 30]", fillcolor="#fcfffd"] ;
2 -> 3 ;
4 [label="age <= 37.5\ngini = 0.568\nsamples = 5797\nvalue = [39, 434, 2220, 17, 3065, 22]", fillcolor="#e1d0f9"] ;
3 -> 4 ;
5 [label="gini = 0.55\nsamples = 4621\nvalue = [35, 309, 1637, 10, 2615, 15]", fillcolor="#d6bef6"] ;
4 -> 5 ;
6 [label="gini = 0.596\nsamples = 1176\nvalue = [4, 125, 583, 7, 450, 7]", fillcolor="#dbfae8"] ;
4 -> 6 ;
7 [label="age <= 35.5\ngini = 0.644\nsamples = 5500\nvalue = [114, 1029, 2617, 44, 1688, 8]", fillcolor="#cff9e0"] ;
3 -> 7 ;
8 [label="gini = 0.63\nsamples = 3864\nvalue = [58, 588, 1808, 23, 1382, 5]", fillcolor="#ddfbe9"] ;
7 -> 8 ;
9 [label="gini = 0.646\nsamples = 1636\nvalue = [56, 441, 809, 21, 306, 3]", fillcolor="#c2f7d8"] ;
7 -> 9 ;
10 [label="weight <= 54.5\ngini = 0.665\nsamples = 15724\nvalue = [1078, 5967, 6579, 464, 1572, 64]", fillcolor="#f3fdf7"] ;
2 -> 10 ;
11 [label="age <= 38.5\ngini = 0.646\nsamples = 7537\nvalue = [300, 2288, 3675, 136, 1114, 24]", fillcolor="#cbf8de"] ;
10 -> 11 ;
12 [label="gini = 0.64\nsamples = 6040\nvalue = [185, 1694, 3033, 94, 1016, 18]", fillcolor="#c2f7d8"] ;
11 -> 12 ;
13 [label="gini = 0.648\nsamples = 1497\nvalue = [115, 594, 642, 42, 98, 6]", fillcolor="#f4fef8"] ;
11 -> 13 ;
14 [label="age <= 36.5\ngini = 0.658\nsamples = 8187\nvalue = [778, 3679, 2904, 328, 458, 40]", fillcolor="#f1fbe2"] ;
10 -> 14 ;
15 [label="gini = 0.646\nsamples = 6083\nvalue = [436, 2619, 2418, 179, 412, 19]", fillcolor="#fafef4"] ;
14 -> 15 ;
16 [label="gini = 0.661\nsamples = 2104\nvalue = [342, 1060, 486, 149, 46, 21]", fillcolor="#dcf6b9"] ;
14 -> 16 ;
17 [label="weight <= 61.5\ngini = 0.739\nsamples = 32155\nvalue = [8472, 11813, 3179, 6710, 258, 1723]", fillcolor="#f1fbe3"] ;
1 -> 17 ;
18 [label="weight <= 58.5\ngini = 0.696\nsamples = 18981\nvalue = [4278, 8794, 2791, 2437, 239, 442]", fillcolor="#e1f7c2"] ;
17 -> 18 ;
19 [label="age <= 38.5\ngini = 0.668\nsamples = 10325\nvalue = [1816, 5189, 2071, 916, 195, 138]", fillcolor="#daf5b4"] ;
18 -> 19 ;
20 [label="gini = 0.655\nsamples = 8129\nvalue = [1279, 4170, 1836, 587, 168, 89]", fillcolor="#dbf5b6"] ;
19 -> 20 ;
21 [label="gini = 0.69\nsamples = 2196\nvalue = [537, 1019, 235, 329, 27, 49]", fillcolor="#e3f7c5"] ;
19 -> 21 ;
22 [label="age <= 37.5\ngini = 0.707\nsamples = 8656\nvalue = [2462, 3605, 720, 1521, 44, 304]", fillcolor="#edfada"] ;
18 -> 22 ;
23 [label="gini = 0.685\nsamples = 6501\nvalue = [1757, 2977, 634, 972, 39, 122]", fillcolor="#e6f8cc"] ;
22 -> 23 ;
24 [label="gini = 0.734\nsamples = 2155\nvalue = [705, 628, 86, 549, 5, 182]", fillcolor="#fef9f5"] ;
22 -> 24 ;
25 [label="age <= 42.5\ngini = 0.731\nsamples = 13174\nvalue = [4194, 3019, 388, 4273, 19, 1281]", fillcolor="#fdfeff"] ;
17 -> 25 ;
26 [label="weight <= 64.5\ngini = 0.727\nsamples = 11370\nvalue = [3777, 2836, 373, 3477, 19, 888]", fillcolor="#fefaf7"] ;
25 -> 26 ;
27 [label="gini = 0.722\nsamples = 7235\nvalue = [2470, 2123, 308, 1927, 13, 394]", fillcolor="#fdf6f2"] ;
26 -> 27 ;
28 [label="gini = 0.715\nsamples = 4135\nvalue = [1307, 713, 65, 1550, 6, 494]", fillcolor="#eef7fd"] ;
26 -> 28 ;
29 [label="age <= 56.5\ngini = 0.694\nsamples = 1804\nvalue = [417, 183, 15, 796, 0, 393]", fillcolor="#c9e4f8"] ;
25 -> 29 ;
30 [label="gini = 0.691\nsamples = 1616\nvalue = [396, 172, 14, 725, 0, 309]", fillcolor="#cae5f8"] ;
29 -> 30 ;
31 [label="gini = 0.642\nsamples = 188\nvalue = [21, 11, 1, 71, 0, 84]", fillcolor="#fce9f4"] ;
29 -> 31 ;
32 [label="weight <= 72.5\ngini = 0.56\nsamples = 20610\nvalue = [2007, 627, 87, 5574, 9, 12306]", fillcolor="#f3a6d3"] ;
0 -> 32 [labeldistance=2.5, labelangle=-45, headlabel="False"] ;
33 [label="weight <= 69.5\ngini = 0.663\nsamples = 11660\nvalue = [1833, 573, 72, 4574, 3, 4605]", fillcolor="#fffeff"] ;
32 -> 33 ;
34 [label="age <= 42.5\ngini = 0.691\nsamples = 5837\nvalue = [1245, 442, 51, 2491, 1, 1607]", fillcolor="#d6ebfa"] ;
33 -> 34 ;
35 [label="height <= 163.83\ngini = 0.692\nsamples = 4927\nvalue = [1165, 413, 47, 2154, 1, 1147]", fillcolor="#cbe5f8"] ;
34 -> 35 ;
36 [label="gini = 0.69\nsamples = 1252\nvalue = [209, 100, 13, 451, 0, 479]", fillcolor="#fef8fc"] ;
35 -> 36 ;
37 [label="gini = 0.677\nsamples = 3675\nvalue = [956, 313, 34, 1703, 1, 668]", fillcolor="#c9e4f8"] ;
35 -> 37 ;
38 [label="height <= 166.37\ngini = 0.599\nsamples = 910\nvalue = [80, 29, 4, 337, 0, 460]", fillcolor="#f9d4ea"] ;
34 -> 38 ;
39 [label="gini = 0.495\nsamples = 341\nvalue = [21, 8, 0, 87, 0, 225]", fillcolor="#f193ca"] ;
38 -> 39 ;
40 [label="gini = 0.624\nsamples = 569\nvalue = [59, 21, 4, 250, 0, 235]", fillcolor="#f6fbfe"] ;
38 -> 40 ;
41 [label="age <= 41.5\ngini = 0.596\nsamples = 5823\nvalue = [588, 131, 21, 2083, 2, 2998]", fillcolor="#f9cfe7"] ;
33 -> 41 ;
42 [label="height <= 166.37\ngini = 0.614\nsamples = 4890\nvalue = [558, 115, 16, 1891, 1, 2309]", fillcolor="#fbe3f1"] ;
41 -> 42 ;
43 [label="gini = 0.537\nsamples = 1667\nvalue = [122, 29, 7, 495, 1, 1013]", fillcolor="#f4a7d4"] ;
42 -> 43 ;
44 [label="gini = 0.632\nsamples = 3223\nvalue = [436, 86, 9, 1396, 0, 1296]", fillcolor="#f5fafe"] ;
42 -> 44 ;
45 [label="weight <= 71.5\ngini = 0.411\nsamples = 933\nvalue = [30, 16, 5, 192, 1, 689]", fillcolor="#ee7abd"] ;
41 -> 45 ;
46 [label="gini = 0.49\nsamples = 509\nvalue = [22, 10, 3, 137, 1, 336]", fillcolor="#f195cb"] ;
45 -> 46 ;
47 [label="gini = 0.289\nsamples = 424\nvalue = [8, 6, 2, 55, 0, 353]", fillcolor="#ea5fb0"] ;
45 -> 47 ;
48 [label="weight <= 78.5\ngini = 0.247\nsamples = 8950\nvalue = [174, 54, 15, 1000, 6, 7701]", fillcolor="#e958ac"] ;
32 -> 48 ;
49 [label="weight <= 75.5\ngini = 0.396\nsamples = 3934\nvalue = [141, 36, 6, 802, 3, 2946]", fillcolor="#ed77bc"] ;
48 -> 49 ;
50 [label="age <= 43.5\ngini = 0.448\nsamples = 2166\nvalue = [89, 22, 4, 532, 3, 1516]", fillcolor="#ef88c4"] ;
49 -> 50 ;
51 [label="gini = 0.471\nsamples = 1869\nvalue = [84, 18, 4, 500, 2, 1261]", fillcolor="#f191c9"] ;
50 -> 51 ;
52 [label="gini = 0.251\nsamples = 297\nvalue = [5, 4, 0, 32, 1, 255]", fillcolor="#e958ad"] ;
50 -> 52 ;
53 [label="age <= 31.5\ngini = 0.322\nsamples = 1768\nvalue = [52, 14, 2, 270, 0, 1430]", fillcolor="#eb66b3"] ;
49 -> 53 ;
54 [label="gini = 0.415\nsamples = 708\nvalue = [30, 7, 0, 152, 0, 519]", fillcolor="#ee7cbe"] ;
53 -> 54 ;
55 [label="gini = 0.249\nsamples = 1060\nvalue = [22, 7, 2, 118, 0, 911]", fillcolor="#e958ad"] ;
53 -> 55 ;
56 [label="weight <= 80.5\ngini = 0.1\nsamples = 5016\nvalue = [33, 18, 9, 198, 3, 4755]", fillcolor="#e644a2"] ;
48 -> 56 ;
57 [label="age <= 33.5\ngini = 0.208\nsamples = 1034\nvalue = [10, 1, 4, 105, 0, 914]", fillcolor="#e853aa"] ;
56 -> 57 ;
58 [label="gini = 0.256\nsamples = 515\nvalue = [6, 1, 1, 68, 0, 439]", fillcolor="#e95bae"] ;
57 -> 58 ;
59 [label="gini = 0.157\nsamples = 519\nvalue = [4, 0, 3, 37, 0, 475]", fillcolor="#e74ba6"] ;
57 -> 59 ;
60 [label="weight <= 87.5\ngini = 0.069\nsamples = 3982\nvalue = [23, 17, 5, 93, 3, 3841]", fillcolor="#e640a1"] ;
56 -> 60 ;
61 [label="gini = 0.1\nsamples = 2240\nvalue = [18, 12, 2, 84, 1, 2123]", fillcolor="#e644a2"] ;
60 -> 61 ;
62 [label="gini = 0.027\nsamples = 1742\nvalue = [5, 5, 3, 9, 2, 1718]", fillcolor="#e53c9e"] ;
60 -> 62 ;
}